Contador_1/simulation/qsim/Contador1.msim.vcd
$comment
	File created using the following command:
		vcd file Contador1.msim.vcd -direction
$end
$date
	Tue Mar 19 12:26:51 2024
$end
$version
	ModelSim Version 10.1d
$end
$timescale
	1ps
$end
$scope module Contador1_vlg_vec_tst $end
$var reg 1 ! clk $end
$var reg 1 " Front_sensor $end
$var reg 1 # reset $end
$var wire 1 $ vehicle_count [5] $end
$var wire 1 % vehicle_count [4] $end
$var wire 1 & vehicle_count [3] $end
$var wire 1 ' vehicle_count [2] $end
$var wire 1 ( vehicle_count [1] $end
$var wire 1 ) vehicle_count [0] $end
$var wire 1 * sampler $end
$scope module i1 $end
$var wire 1 + gnd $end
$var wire 1 , vcc $end
$var wire 1 - unknown $end
$var tri1 1 . devclrn $end
$var tri1 1 / devpor $end
$var tri1 1 0 devoe $end
$var wire 1 1 vehicle_count[0]~output_o $end
$var wire 1 2 vehicle_count[1]~output_o $end
$var wire 1 3 vehicle_count[2]~output_o $end
$var wire 1 4 vehicle_count[3]~output_o $end
$var wire 1 5 vehicle_count[4]~output_o $end
$var wire 1 6 vehicle_count[5]~output_o $end
$var wire 1 7 clk~input_o $end
$var wire 1 8 clk~inputclkctrl_outclk $end
$var wire 1 9 Front_sensor~input_o $end
$var wire 1 : vehicle_detected~feeder_combout $end
$var wire 1 ; reset~input_o $end
$var wire 1 < reset~inputclkctrl_outclk $end
$var wire 1 = vehicle_detected~q $end
$var wire 1 > counter[0]~5_combout $end
$var wire 1 ? counter[1]~6_combout $end
$var wire 1 @ counter[0]~8_combout $end
$var wire 1 A counter[1]~7 $end
$var wire 1 B counter[2]~9_combout $end
$var wire 1 C counter[2]~10 $end
$var wire 1 D counter[3]~11_combout $end
$var wire 1 E counter[3]~12 $end
$var wire 1 F counter[4]~13_combout $end
$var wire 1 G counter[4]~14 $end
$var wire 1 H counter[5]~15_combout $end
$var wire 1 I counter [5] $end
$var wire 1 J counter [4] $end
$var wire 1 K counter [3] $end
$var wire 1 L counter [2] $end
$var wire 1 M counter [1] $end
$var wire 1 N counter [0] $end
$upscope $end
$upscope $end
$enddefinitions $end
#0
$dumpvars
0!
1"
1#
0)
0(
0'
0&
0%
0$
x*
0+
1,
x-
1.
1/
10
01
02
03
04
05
06
07
08
19
1:
1;
1<
0=
1>
0?
1@
0A
0B
1C
0D
0E
0F
1G
0H
0N
0M
0L
0K
0J
0I
$end
#15000
1!
17
18
0*
#30000
0!
07
08
1*
#45000
1!
17
18
0*
#60000
0!
07
08
1*
#75000
1!
17
18
0*
#90000
0!
07
08
1*
#105000
1!
17
18
0*
#120000
0!
07
08
1*
#135000
1!
17
18
0*
#150000
0!
07
08
1*
#165000
1!
17
18
0*
#180000
0!
07
08
1*
#195000
1!
17
18
0*
#210000
0!
07
08
1*
#225000
1!
17
18
0*
#240000
0!
07
08
1*
#255000
1!
17
18
0*
#270000
0!
07
08
1*
#285000
1!
17
18
0*
#300000
0!
07
08
1*
#315000
1!
17
18
0*
#330000
0!
07
08
1*
#345000
1!
17
18
0*
#360000
0!
07
08
1*
#375000
1!
17
18
0*
#390000
0!
07
08
1*
#405000
1!
17
18
0*
#420000
0!
07
08
1*
#435000
1!
17
18
0*
#450000
0!
07
08
1*
#465000
1!
17
18
0*
#480000
0!
07
08
1*
#495000
1!
17
18
0*
#510000
0!
07
08
1*
#525000
1!
17
18
0*
#540000
0!
07
08
1*
#555000
1!
17
18
0*
#570000
0!
07
08
1*
#585000
1!
17
18
0*
#600000
0!
07
08
1*
#615000
1!
17
18
0*
#630000
0!
07
08
1*
#645000
1!
17
18
0*
#660000
0!
07
08
1*
#675000
1!
17
18
0*
#690000
0!
07
08
1*
#705000
1!
17
18
0*
#720000
0!
07
08
1*
#735000
1!
17
18
0*
#750000
0!
07
08
1*
#765000
1!
17
18
0*
#780000
0!
07
08
1*
#795000
1!
17
18
0*
#810000
0!
07
08
1*
#825000
1!
17
18
0*
#840000
0!
07
08
1*
#855000
1!
17
18
0*
#870000
0!
07
08
1*
#885000
1!
17
18
0*
#900000
0!
07
08
1*
#915000
1!
17
18
0*
#930000
0!
07
08
1*
#945000
1!
17
18
0*
#960000
0!
07
08
1*
#975000
1!
17
18
0*
#990000
0!
07
08
1*
