Front/simulation/qsim/FrontSensor.msim.vcd
$comment
	File created using the following command:
		vcd file FrontSensor.msim.vcd -direction
$end
$date
	Wed Mar 20 12:47:32 2024
$end
$version
	ModelSim Version 10.1d
$end
$timescale
	1ps
$end
$scope module FrontSensor_vlg_vec_tst $end
$var reg 1 ! clk $end
$var reg 1 " front_sensor $end
$var reg 1 # id_valida $end
$var reg 5 $ identificacion [4:0] $end
$var reg 1 % reset $end
$var wire 1 & alarm $end
$var wire 1 ' barrera_final $end
$var wire 1 ( barrera_inicial $end
$var wire 1 ) categoria [1] $end
$var wire 1 * categoria [0] $end
$var wire 1 + led_rojo $end
$var wire 1 , led_verde $end
$var wire 1 - sampler $end
$scope module i1 $end
$var wire 1 . gnd $end
$var wire 1 / vcc $end
$var wire 1 0 unknown $end
$var tri1 1 1 devclrn $end
$var tri1 1 2 devpor $end
$var tri1 1 3 devoe $end
$var wire 1 4 identificacion[0]~input_o $end
$var wire 1 5 identificacion[3]~input_o $end
$var wire 1 6 identificacion[4]~input_o $end
$var wire 1 7 barrera_inicial~output_o $end
$var wire 1 8 barrera_final~output_o $end
$var wire 1 9 categoria[0]~output_o $end
$var wire 1 : categoria[1]~output_o $end
$var wire 1 ; led_verde~output_o $end
$var wire 1 < led_rojo~output_o $end
$var wire 1 = alarm~output_o $end
$var wire 1 > clk~input_o $end
$var wire 1 ? clk~inputclkctrl_outclk $end
$var wire 1 @ barrera_inicial~reg0feeder_combout $end
$var wire 1 A reset~input_o $end
$var wire 1 B reset~inputclkctrl_outclk $end
$var wire 1 C id_valida~input_o $end
$var wire 1 D alarm~0_combout $end
$var wire 1 E vehiculo_detectado~feeder_combout $end
$var wire 1 F vehiculo_detectado~q $end
$var wire 1 G barrera_inicial~0_combout $end
$var wire 1 H barrera_inicial~reg0_q $end
$var wire 1 I front_sensor~input_o $end
$var wire 1 J barrera_final~0_combout $end
$var wire 1 K barrera_final~reg0_q $end
$var wire 1 L identificacion[1]~input_o $end
$var wire 1 M categoria[0]~reg0_q $end
$var wire 1 N identificacion[2]~input_o $end
$var wire 1 O categoria[1]~reg0_q $end
$var wire 1 P led_verde~0_combout $end
$var wire 1 Q led_verde~reg0_q $end
$var wire 1 R intentos[0]~0_combout $end
$var wire 1 S intentos[1]~1_combout $end
$var wire 1 T alarm~1_combout $end
$var wire 1 U alarm~reg0_q $end
$var wire 1 V intentos [1] $end
$var wire 1 W intentos [0] $end
$upscope $end
$upscope $end
$enddefinitions $end
#0
$dumpvars
0!
1"
1#
b1000 $
1%
0&
0'
0(
0*
0)
0+
0,
x-
0.
1/
x0
11
12
13
04
15
06
07
08
09
0:
0;
0<
0=
0>
0?
1@
1A
1B
1C
1D
1E
0F
1G
0H
1I
0J
0K
0L
0M
0N
0O
1P
0Q
0R
0S
0T
0U
0W
0V
$end
#10000
1!
1>
1?
0-
#20000
0!
0>
0?
1-
#30000
1!
1>
1?
0-
#40000
0!
0>
0?
1-
#50000
1!
1>
1?
0-
#60000
0!
0>
0?
1-
#70000
1!
1>
1?
0-
#80000
0!
0>
0?
1-
#90000
1!
1>
1?
0-
#100000
0!
0>
0?
1-
#110000
1!
1>
1?
0-
#120000
0!
0>
0?
1-
#130000
1!
1>
1?
0-
#140000
0!
0>
0?
1-
#150000
1!
1>
1?
0-
#160000
0!
0>
0?
1-
#170000
1!
1>
1?
0-
#180000
0!
0>
0?
1-
#190000
1!
1>
1?
0-
#200000
0!
0>
0?
1-
#210000
1!
1>
1?
0-
#220000
0!
0>
0?
1-
#230000
1!
1>
1?
0-
#240000
0!
0>
0?
1-
#250000
1!
1>
1?
0-
#260000
0!
0>
0?
1-
#270000
1!
1>
1?
0-
#280000
0!
0>
0?
1-
#290000
1!
1>
1?
0-
#300000
0!
0>
0?
1-
#310000
1!
1>
1?
0-
#320000
0!
0>
0?
1-
#330000
1!
1>
1?
0-
#340000
0!
0>
0?
1-
#350000
1!
1>
1?
0-
#360000
0!
0>
0?
1-
#370000
1!
1>
1?
0-
#380000
0!
0>
0?
1-
#390000
1!
1>
1?
0-
#400000
0!
0>
0?
1-
#410000
1!
1>
1?
0-
#420000
0!
0>
0?
1-
#430000
1!
1>
1?
0-
#440000
0!
0>
0?
1-
#450000
1!
1>
1?
0-
#460000
0!
0>
0?
1-
#470000
1!
1>
1?
0-
#480000
0!
0>
0?
1-
#490000
1!
1>
1?
0-
#500000
0!
0>
0?
1-
#510000
1!
1>
1?
0-
#520000
0!
0>
0?
1-
#530000
1!
1>
1?
0-
#540000
0!
0>
0?
1-
#550000
1!
1>
1?
0-
#560000
0!
0>
0?
1-
#570000
1!
1>
1?
0-
#580000
0!
0>
0?
1-
#590000
1!
1>
1?
0-
#600000
0!
0>
0?
1-
#610000
1!
1>
1?
0-
#620000
0!
0>
0?
1-
#630000
1!
1>
1?
0-
#640000
0!
0>
0?
1-
#650000
1!
1>
1?
0-
#660000
0!
0>
0?
1-
#670000
1!
1>
1?
0-
#680000
0!
0>
0?
1-
#690000
1!
1>
1?
0-
#700000
0!
0>
0?
1-
#710000
1!
1>
1?
0-
#720000
0!
0>
0?
1-
#730000
1!
1>
1?
0-
#740000
0!
0>
0?
1-
#750000
1!
1>
1?
0-
#760000
0!
0>
0?
1-
#770000
1!
1>
1?
0-
#780000
0!
0>
0?
1-
#790000
1!
1>
1?
0-
#800000
0!
0>
0?
1-
#810000
1!
1>
1?
0-
#820000
0!
0>
0?
1-
#830000
1!
1>
1?
0-
#840000
0!
0>
0?
1-
#850000
1!
1>
1?
0-
#860000
0!
0>
0?
1-
#870000
1!
1>
1?
0-
#880000
0!
0>
0?
1-
#890000
1!
1>
1?
0-
#900000
0!
0>
0?
1-
#910000
1!
1>
1?
0-
#920000
0!
0>
0?
1-
#930000
1!
1>
1?
0-
#940000
0!
0>
0?
1-
#950000
1!
1>
1?
0-
#960000
0!
0>
0?
1-
#970000
1!
1>
1?
0-
#980000
0!
0>
0?
1-
#990000
1!
1>
1?
0-
